id;nome;endereco;nuit;area_actividade;saldo;created_at;created_by;last_modification_at;last_modification_by
1;Account port supply-chains;Consultant Open-source;52080;motivating backing;54617;2022-01-24T03:47:07;Licenciado Rato;2022-01-24T08:38:31;matrices
2;grow Ucrânia;Representative Rufiyaa Betão;75486;middleware;32000;2022-01-23T21:01:18;Salsichas Borders;2022-01-24T12:55:51;viral
3;heuristic cross-platform migration;Borders;70928;Beleza Course;80451;2022-01-24T04:01:05;Algodão web hybrid;2022-01-23T21:40:00;SCSI Betão Human
4;payment Wells e-services;Borracha 24/7;53333;Michigan Berkshire payment;53671;2022-01-24T05:36:40;Centralized program;2022-01-24T01:36:52;Web bluetooth
5;National;maximized program bandwidth;97759;Prático;96481;2022-01-24T03:33:09;Dollar Rato;2022-01-24T14:07:45;Plástico
6;Facilitator Account;Nevada;93879;microchip aggregate;42495;2022-01-24T02:30:17;Product;2022-01-24T09:03:04;Betão Tokelau
7;radical;online Danish;86554;input Bebé Technician;45676;2022-01-24T06:33:42;connecting Equador Lead;2022-01-23T22:05:22;De-engineered Buckinghamshire Azerbaijanian
8;Saúde connect;digital;62295;panel;18637;2022-01-24T13:52:23;Dynamic Marca Buckinghamshire;2022-01-24T13:41:10;Música online
9;Atum Lempira;action-items;50018;Estados;1421;2022-01-24T03:46:29;Strategist Executive;2022-01-24T04:33:26;ciano
10;Roads Versatile;Lustroso Integration;27743;empower Land;76459;2022-01-24T11:01:13;Implemented Graphic índigo;2022-01-24T00:54:24;invoice
