{
  "name": "ModalidadeContratacao",
  "fields": [
    {
      "fieldName": "nome",
      "fieldType": "String",
      "fieldValidateRules": ["required"]
    },
    {
      "fieldName": "descricao",
      "fieldType": "String"
    },
    {
      "fieldName": "createdAt",
      "fieldType": "Instant"
    },
    {
      "fieldName": "createdBy",
      "fieldType": "String"
    },
    {
      "fieldName": "lastModificationAt",
      "fieldType": "Instant"
    },
    {
      "fieldName": "lastModificationBy",
      "fieldType": "String"
    }
  ],
  "relationships": [
    {
      "relationshipType": "one-to-many",
      "otherEntityName": "aquisicao",
      "otherEntityRelationshipName": "modalidadeContratacao",
      "relationshipName": "aquisicao"
    }
  ],
  "entityTableName": "modalidade_contratacao",
  "dto": "no",
  "pagination": "pagination",
  "service": "serviceImpl",
  "jpaMetamodelFiltering": true,
  "fluentMethods": true,
  "readOnly": false,
  "embedded": false,
  "applications": "*",
  "changelogDate": "20220124163347"
}
